"서비스구분","서비스ID","대분류명","소분류명","서비스상태","서비스명","결제방법","장소명","서비스대상","바로가기URL","장소X좌표","장소Y좌표","서비스개시시작일시","서비스개시종료일시","접수시작일시","접수종료일시","지역명"
"자체","S200518160420676165","교육","건강/스포츠","접수종료","서대문 안산자락길 오감힐링숲(산림치유) 화 목 오전 10시~12시","무료","안산도시자연공원(안산공원관리소)","성인","http://yeyak.seoul.go.kr/reservation/view.web?rsvsvcid=S200518160420676165","37.57955535948529","126.93806516431036","2020-05-18 00:00:00.0","2020-12-31 00:00:00.0","2020-05-18 09:00:00.0","2020-05-28 09:00:00.0","서대문구"
"자체","S200518162948821156","교육","건강/스포츠","접수종료","안산 자락길 건강산책(산림치유) 월 금","무료","안산도시자연공원(안산공원관리소)","성인","http://yeyak.seoul.go.kr/reservation/view.web?rsvsvcid=S200518162948821156","37.57955535948529","126.93806516431036","2020-05-18 00:00:00.0","2020-12-31 00:00:00.0","2020-05-18 09:00:00.0","2020-05-27 09:00:00.0","서대문구"
"자체","S200518170741450419","교육","건강/스포츠","접수종료","(수)서대문안산 초록숲길산책 15시","무료","안산도시자연공원(안산공원관리소)","성인","http://yeyak.seoul.go.kr/reservation/view.web?rsvsvcid=S200518170741450419","37.57955535948529","126.93806516431036","2020-05-18 00:00:00.0","2020-12-31 00:00:00.0","2020-05-18 09:00:00.0","2020-05-27 09:00:00.0","서대문구"
"자체","S200519154655623249","교육","체험/견학","접수종료","6월 독립공원 역사문화탐방 (일)11시~13시 2시~4시","무료","서대문독립공원","어린이(초등3년 이상 가족단위)가족","http://yeyak.seoul.go.kr/reservation/view.web?rsvsvcid=S200519154655623249","37.57206279893568","126.9589768656828","2020-05-19 00:00:00.0","2020-12-31 00:00:00.0","2020-05-19 10:00:00.0","2020-06-01 10:00:00.0","서대문구"
"자체","S200528184004832753","교육","체험/견학","접수중","가족과 함께하는 별빛달빛 숲트레킹","무료","백련산매바위유아숲체험장 앞 팔각정","가족","http://yeyak.seoul.go.kr/reservation/view.web?rsvsvcid=S200528184004832753","37.582118713581","126.93066044978","2020-05-28 00:00:00.0","2020-06-30 00:00:00.0","2020-05-28 00:00:00.0","2020-06-22 00:00:00.0","서대문구"
"자체","S200528191219585999","교육","체험/견학","접수중","숲속자연미술 (월)","무료","인왕산 개미마을 유아숲터","제한없음","http://yeyak.seoul.go.kr/reservation/view.web?rsvsvcid=S200528191219585999","37.5908738972265","126.954016146354","2020-05-28 00:00:00.0","2020-06-30 00:00:00.0","2020-05-28 00:00:00.0","2020-06-26 00:00:00.0","서대문구"
"자체","S200529114742843750","교육","체험/견학","접수중","아름다운 숲길 동행","무료","안산도시자연공원(안산공원관리소)","제한없음","http://yeyak.seoul.go.kr/reservation/view.web?rsvsvcid=S200529114742843750","37.57955535948529","126.93806516431036","2020-06-01 00:00:00.0","2020-06-30 00:00:00.0","2020-06-01 09:00:00.0","2020-06-25 18:00:00.0","서대문구"
"자체","S200529193451192639","교육","체험/견학","접수중","유아자연생태학교","무료","안산 방죽 유아숲터","유아","http://yeyak.seoul.go.kr/reservation/view.web?rsvsvcid=S200529193451192639","37.5822523545791","126.939202994178","2020-05-29 00:00:00.0","2020-06-30 00:00:00.0","2020-05-29 00:00:00.0","2020-06-19 00:00:00.0","서대문구"
"자체","S200529194324395868","교육","체험/견학","접수중","아빠와 함께하는 숲속 탐험여행","무료","백련산유아숲체험장 부근 유아숲터","가족(8팀)","http://yeyak.seoul.go.kr/reservation/view.web?rsvsvcid=S200529194324395868","37.5906223099894","126.93336637607","2020-05-29 00:00:00.0","2020-06-30 00:00:00.0","2020-05-29 00:00:00.0","2020-06-26 00:00:00.0","서대문구"
"자체","S200602144802534858","교육","건강/스포츠","접수중","7월 서대문 안산자락길 오감힐링숲(산림치유) 화 목 오전 10시~12시","무료","안산도시자연공원(안산공원관리소)","성인","http://yeyak.seoul.go.kr/reservation/view.web?rsvsvcid=S200602144802534858","37.57955535948529","126.93806516431036","2020-06-02 00:00:00.0","2020-12-31 00:00:00.0","2020-06-02 09:00:00.0","2020-06-22 09:00:00.0","서대문구"
"자체","S200602145913096600","교육","건강/스포츠","접수중","7월 서대문 안산 건강산책(산림치유)월 금","무료","안산도시자연공원(안산공원관리소)","성인","http://yeyak.seoul.go.kr/reservation/view.web?rsvsvcid=S200602145913096600","37.57955535948529","126.93806516431036","2020-06-02 00:00:00.0","2020-12-31 00:00:00.0","2020-06-02 09:00:00.0","2020-06-22 09:00:00.0","서대문구"
"자체","S200603140457817068","교육","체험/견학","접수중","여성 친화적 테마여행","무료","안산도시자연공원(안산공원관리소)","제한없음","http://yeyak.seoul.go.kr/reservation/view.web?rsvsvcid=S200603140457817068","37.57955535948529","126.93806516431036","2020-06-03 00:00:00.0","2020-11-30 00:00:00.0","2020-06-08 10:00:00.0","2020-11-20 18:00:00.0","서대문구"
"자체","S200603141452296296","교육","체험/견학","접수중","청소년 탐구 동아리","무료","안산도시자연공원(안산공원관리소)","제한없음","http://yeyak.seoul.go.kr/reservation/view.web?rsvsvcid=S200603141452296296","37.57955535948529","126.93806516431036","2020-06-03 00:00:00.0","2020-11-20 00:00:00.0","2020-06-03 10:00:00.0","2020-11-20 18:00:00.0","서대문구"
"자체","S200603142550464283","교육","체험/견학","접수중","찾아가는 숲해설","무료","안산도시자연공원(안산공원관리소)","제한없음","http://yeyak.seoul.go.kr/reservation/view.web?rsvsvcid=S200603142550464283","37.57955535948529","126.93806516431036","2020-06-03 00:00:00.0","2020-11-30 00:00:00.0","2020-06-03 10:00:00.0","2020-11-20 18:00:00.0","서대문구"
"자체","S200603143606421657","교육","체험/견학","접수중","양서류 관찰교실","무료","안산도시자연공원(안산공원관리소)","제한없음","http://yeyak.seoul.go.kr/reservation/view.web?rsvsvcid=S200603143606421657","37.57955535948529","126.93806516431036","2020-06-03 00:00:00.0","2020-06-30 00:00:00.0","2020-06-03 10:00:00.0","2020-06-25 18:00:00.0","서대문구"