"키","명칭","행정시","행정구","행정동"
"BE_IW11-0001","Diamond S?tra","Seoul","Dongdaemun-gu","Cheongnyangni-dong"
"BE_IW11-0002","Sunginwon","Seoul","Dongdaemun-gu","Cheongnyangni-dong"
"BE_IW11-0003","Yeonghuiwon","Seoul","Dongdaemun-gu","Cheongnyangni-dong"
"BE_IW11-0004","Hongneung Royal Tomb / Royal Tomb of King Gojong","Seoul","Dongdaemun-gu","Cheongnyangni-dong"