"서비스구분","서비스ID","대분류명","소분류명","서비스상태","서비스명","결제방법","장소명","서비스대상","바로가기URL","장소X좌표","장소Y좌표","서비스개시시작일시","서비스개시종료일시","접수시작일시","접수종료일시","지역명"
"자체","S190215161249131684","교육","체험/견학","접수중","마포구 심폐소생술 교육 신청(마포구 심폐소생술교육)","무료","마포구 심폐소생술 교육장","청소년(실습 교육 특성상 초등학생의 경우 고학년이상만 접수가능합니다.)성인국가유공자주부어르신","http://yeyak.seoul.go.kr/reservation/view.web?rsvsvcid=S190215161249131684","37.56631121503804","126.90161544468512","2020-01-01 00:00:00.0","2021-01-31 00:00:00.0","2020-01-01 00:00:00.0","2021-01-31 00:00:00.0","마포구"
"자체","S191130170751046782","교육","체험/견학","예약일시중지","2020년 서울월드컵경기장 스타디움 투어 예약안내 ","유료(요금안내문의)","서울월드컵경기장","제한없음","http://yeyak.seoul.go.kr/reservation/view.web?rsvsvcid=S191130170751046782","37.56828970845201","126.89727529660105","2019-12-01 00:00:00.0","2020-12-31 00:00:00.0","2019-12-01 09:00:00.0","2020-12-31 23:59:00.0","마포구"
"자체","S191230104639363714","교육","기타","접수중","서울동물복지지원센터 입양 전 교육(장소 : 서울동물복지지원센터) - 코로나 19 관련 주의사항 필독 요망!","무료","서울동물복지지원센터","제한없음","http://yeyak.seoul.go.kr/reservation/view.web?rsvsvcid=S191230104639363714","37.5757253465","126.8899747463","2019-12-29 00:00:00.0","2020-12-31 00:00:00.0","2019-12-29 00:00:00.0","2020-12-31 23:59:00.0","마포구"
"자체","S200401135813577098","교육","도시농업","접수종료","'노을 도시농부 가족' 2기 참여자 모집","무료","월드컵공원>노을여가센터","가족(초등생 이상 자녀와 함께하는 가족)","http://yeyak.seoul.go.kr/reservation/view.web?rsvsvcid=S200401135813577098","37.569686246707896","126.88007229008267","2020-04-01 00:00:00.0","2020-11-30 00:00:00.0","2020-04-01 15:00:00.0","2020-04-10 18:00:00.0","마포구"
"자체","S200429111648507591","교육","자연/과학","접수중","[난지수변생태학습센터] <단체탐방프로그램> 행복한 습지탐방","무료","난지한강공원>난지 수변생태학습센터","제한없음","http://yeyak.seoul.go.kr/reservation/view.web?rsvsvcid=S200429111648507591","37.56283678511617","126.88542105032526","2020-04-29 00:00:00.0","2020-12-31 00:00:00.0","2020-04-29 00:00:00.0","2020-12-24 00:00:00.0","마포구"
"자체","S200513102705682638","교육","인문/언어","접수중","문화비축기지 시민투어 오디오가이드 프로그램","무료","마포문화비축기지","제한없음","http://yeyak.seoul.go.kr/reservation/view.web?rsvsvcid=S200513102705682638","37.5703456074","126.8950311952","2020-05-13 00:00:00.0","2020-08-31 00:00:00.0","2020-05-13 13:00:00.0","2020-08-30 16:00:00.0","마포구"
"자체","S200520152647916048","교육","자연/과학","접수중","노을별누리에서 만나는 일식 6월(노을별누리 토 누구나)","유료","월드컵공원>노을별누리","가족((초등3학년 이상만 참여가능))","http://yeyak.seoul.go.kr/reservation/view.web?rsvsvcid=S200520152647916048","37.57446033087337","126.87882133621609","2020-05-25 00:00:00.0","2020-06-21 00:00:00.0","2020-05-25 10:00:00.0","2020-06-20 17:00:00.0","마포구"
"자체","S200521121232504276","교육","체험/견학","접수중","숲해설 이 있는 매봉산 상암근린공원","무료","매봉산/상암근린공원","제한없음","http://yeyak.seoul.go.kr/reservation/view.web?rsvsvcid=S200521121232504276","37.5682884450841","126.897273034482","2020-05-25 00:00:00.0","2020-11-30 00:00:00.0","2020-05-25 07:00:00.0","2020-11-30 19:00:00.0","마포구"
"자체","S200521160928934977","교육","도시농업","접수중","도심 속 텃밭체험 프로그램","무료","상암근린공원 힐링텃밭","제한없음","http://yeyak.seoul.go.kr/reservation/view.web?rsvsvcid=S200521160928934977","37.5788356793","126.8825980197","2020-05-21 00:00:00.0","2020-11-13 00:00:00.0","2020-05-21 10:00:00.0","2020-11-10 18:00:00.0","마포구"
"자체","S200524154238845131","교육","자연/과학","접수중","(평일 오전)신나는 한강자연탐사(관찰)","무료","난지한강공원>난지 야생탐사센터","유아청소년성인어린이","http://yeyak.seoul.go.kr/reservation/view.web?rsvsvcid=S200524154238845131","37.56283678511617","126.88542105032526","2020-05-25 00:00:00.0","2020-06-30 00:00:00.0","2020-05-25 00:00:00.0","2020-06-26 23:59:00.0","마포구"
"자체","S200524160615009488","교육","자연/과학","접수중","(평일 오후)거침없이 자연탐사(환경)","무료","난지한강공원>난지 야생탐사센터","청소년장애인어르신어린이","http://yeyak.seoul.go.kr/reservation/view.web?rsvsvcid=S200524160615009488","37.56283678511617","126.88542105032526","2020-05-25 00:00:00.0","2020-06-30 00:00:00.0","2020-05-25 00:00:00.0","2020-06-26 16:00:00.0","마포구"
"자체","S200524161202123822","교육","자연/과학","접수중","(일)야생동물구조대(환경)","무료","난지한강공원>난지 야생탐사센터","청소년(기업단체)성인","http://yeyak.seoul.go.kr/reservation/view.web?rsvsvcid=S200524161202123822","37.56283678511617","126.88542105032526","2020-05-25 00:00:00.0","2020-06-28 00:00:00.0","2020-05-25 10:00:00.0","2020-06-25 23:59:00.0","마포구"
"자체","S200524162015349892","교육","자연/과학","접수중","탐험가의 자격","무료","난지한강공원>난지 야생탐사센터","어린이가족","http://yeyak.seoul.go.kr/reservation/view.web?rsvsvcid=S200524162015349892","37.56283678511617","126.88542105032526","2020-05-25 00:00:00.0","2020-06-28 00:00:00.0","2020-05-25 10:00:00.0","2020-06-25 23:59:00.0","마포구"
"자체","S200524163354917681","교육","자연/과학","접수중","자연으로 고고씽~(관찰)","무료","난지한강공원>난지 야생탐사센터","가족","http://yeyak.seoul.go.kr/reservation/view.web?rsvsvcid=S200524163354917681","37.56283678511617","126.88542105032526","2020-05-25 00:00:00.0","2020-06-28 00:00:00.0","2020-05-25 10:00:00.0","2020-06-25 23:59:00.0","마포구"
"자체","S200524164051926110","교육","자연/과학","접수중","쉿! 밤의 이야기를 들어봐","무료","난지한강공원>난지 야생탐사센터","성인어린이가족","http://yeyak.seoul.go.kr/reservation/view.web?rsvsvcid=S200524164051926110","37.56283678511617","126.88542105032526","2020-05-25 00:00:00.0","2020-06-24 00:00:00.0","2020-05-25 10:00:00.0","2020-06-21 23:59:00.0","마포구"
"자체","S200524165414584288","교육","자연/과학","접수중","(토)자전거타고 한강변 생태탐사(관찰)","무료","난지한강공원>난지 야생탐사센터","제한없음","http://yeyak.seoul.go.kr/reservation/view.web?rsvsvcid=S200524165414584288","37.56283678511617","126.88542105032526","2020-05-25 00:00:00.0","2020-06-20 00:00:00.0","2020-05-25 10:00:00.0","2020-06-17 23:59:00.0","마포구"
"자체","S200528085406632340","교육","자연/과학","접수중","[난지수변생태학습센터] <생태프로그램> (토) 물속곤충을 만나보자","무료","난지한강공원>난지 수변생태학습센터","어린이(초등학생 이상)","http://yeyak.seoul.go.kr/reservation/view.web?rsvsvcid=S200528085406632340","37.56283678511617","126.88542105032526","2020-06-01 00:00:00.0","2020-06-20 00:00:00.0","2020-06-01 00:00:00.0","2020-06-18 00:00:00.0","마포구"
"자체","S200528212030085165","교육","자연/과학","접수중","[난지수변생태학습센터] <관찰프로그램> (토) 자세히봐야 예쁜 꽃","무료","난지한강공원>난지 수변생태학습센터","어린이가족","http://yeyak.seoul.go.kr/reservation/view.web?rsvsvcid=S200528212030085165","37.56283678511617","126.88542105032526","2020-06-01 00:00:00.0","2020-06-27 00:00:00.0","2020-06-01 00:00:00.0","2020-06-25 00:00:00.0","마포구"
"자체","S200528213601846180","교육","자연/과학","접수중","[난지수변생태학습센터] <체험교실> (일) 난지의 쪽빛손수건","무료","난지한강공원>난지 수변생태학습센터","어린이","http://yeyak.seoul.go.kr/reservation/view.web?rsvsvcid=S200528213601846180","37.56283678511617","126.88542105032526","2020-06-01 00:00:00.0","2020-06-21 00:00:00.0","2020-06-01 00:00:00.0","2020-06-19 00:00:00.0","마포구"
"자체","S200528223157582324","교육","자연/과학","접수중","[난지수변생태학습센터] <생태프로그램> (일) 우리는 짝꿍일까?","무료","난지한강공원>난지 수변생태학습센터","어린이","http://yeyak.seoul.go.kr/reservation/view.web?rsvsvcid=S200528223157582324","37.56283678511617","126.88542105032526","2020-06-01 00:00:00.0","2020-06-21 00:00:00.0","2020-06-01 00:00:00.0","2020-06-19 00:00:00.0","마포구"